#Measurement file	
#project	CMS tracker
#Sensor Type	PSS
#ID	34342_007_PSS_MAINL
#Scratch PAD	|0000|0000|0000|0000|0000|0111|
#Operator	HPK
#Date	28-Sep-20
#Ingot No.	2984038-504
#Bad strips	0
#AC NG	none
#AC open	none
#AC short	none
#DC high	none
#DC low	none
#DC leaky	none
#Polysilicon Bias Resistance Upper [Mohm]	1.81 
#Polysilicon Bias Resistance Lower [Mohm]	1.60 
#Polysilicon Bias Resistance Average [Mohm]	1.70 
#Depletion voltage [V]	280
#temperature [deg]	25
#humidity [%]	50
	
voltage [V]	current [A]
0	4.568E-09
20	6.896E-08
40	7.182E-08
60	7.328E-08
80	7.287E-08
100	7.728E-08
120	7.835E-08
140	7.91E-08
160	7.987E-08
180	8.048E-08
200	8.122E-08
220	8.218E-08
240	8.371E-08
260	8.576E-08
280	8.247E-08
300	8.365E-08
320	8.448E-08
340	8.517E-08
360	8.579E-08
380	8.637E-08
400	8.692E-08
420	8.743E-08
440	8.794E-08
460	8.843E-08
480	8.89E-08
500	8.937E-08
520	8.982E-08
540	9.026E-08
560	9.07E-08
580	9.114E-08
600	9.158E-08
620	9.201E-08
640	9.243E-08
660	9.287E-08
680	9.33E-08
700	9.374E-08
720	9.418E-08
740	9.462E-08
760	9.508E-08
780	9.554E-08
800	9.602E-08
820	9.651E-08
840	9.701E-08
860	9.753E-08
880	9.806E-08
900	9.862E-08
920	9.919E-08
940	9.979E-08
960	1.0041E-07
980	1.0105E-07
1000	1.0172E-07
	
voltage [V]	capacitance [F]
0	5.06388E-08
10	9.52551E-09
20	6.01846E-09
30	4.90407E-09
40	4.22781E-09
50	3.77868E-09
60	3.44816E-09
70	3.16696E-09
80	2.96257E-09
90	2.79328E-09
100	2.65008E-09
110	2.52667E-09
120	2.41917E-09
130	2.32433E-09
140	2.23938E-09
150	2.16324E-09
160	2.09439E-09
170	2.03332E-09
180	1.97604E-09
190	1.91968E-09
200	1.86817E-09
210	1.82161E-09
220	1.7773E-09
230	1.73445E-09
240	1.69279E-09
250	1.65331E-09
260	1.61808E-09
270	1.59077E-09
280	1.57584E-09
290	1.56994E-09
300	1.5672E-09
310	1.56557E-09
320	1.56442E-09
330	1.56354E-09
340	1.56283E-09
350	1.56221E-09
360	1.56171E-09
370	1.56122E-09
380	1.56086E-09
390	1.56047E-09
400	1.56015E-09
	
#End of manufacturer data file		
