#Measurement file	
#project	CMS tracker
#Sensor Type	PSS
#ID	34342_029_PSS_MAINL
#Scratch PAD	|0000|0000|0000|0000|0010|1001|
#Operator	HPK
#Date	28-Sep-20
#Ingot No.	2984038-504
#Bad strips	0
#AC NG	none
#AC open	none
#AC short	none
#DC high	none
#DC low	none
#DC leaky	none
#Polysilicon Bias Resistance Upper [Mohm]	1.81 
#Polysilicon Bias Resistance Lower [Mohm]	1.60 
#Polysilicon Bias Resistance Average [Mohm]	1.70 
#Depletion voltage [V]	290
#temperature [deg]	25
#humidity [%]	50
	
voltage [V]	current [A]
0	4.104E-09
20	6.368E-08
40	6.691E-08
60	7.056E-08
80	7.171E-08
100	7.244E-08
120	7.474E-08
140	7.396E-08
160	7.465E-08
180	7.514E-08
200	7.581E-08
220	7.692E-08
240	7.331E-08
260	7.56E-08
280	7.769E-08
300	7.893E-08
320	7.978E-08
340	8.048E-08
360	8.11E-08
380	8.167E-08
400	8.22E-08
420	8.271E-08
440	8.32E-08
460	8.368E-08
480	8.414E-08
500	8.459E-08
520	8.503E-08
540	8.547E-08
560	8.59E-08
580	8.633E-08
600	8.676E-08
620	8.719E-08
640	8.762E-08
660	8.805E-08
680	8.848E-08
700	8.892E-08
720	8.937E-08
740	8.983E-08
760	9.03E-08
780	9.079E-08
800	9.129E-08
820	9.181E-08
840	9.235E-08
860	9.291E-08
880	9.35E-08
900	9.411E-08
920	9.474E-08
940	9.541E-08
960	9.612E-08
980	9.687E-08
1000	9.765E-08
	
voltage [V]	capacitance [F]
0	5.06723E-08
10	9.80494E-09
20	6.07069E-09
30	4.94266E-09
40	4.26265E-09
50	3.81307E-09
60	3.47093E-09
70	3.19729E-09
80	2.99087E-09
90	2.81962E-09
100	2.67454E-09
110	2.54954E-09
120	2.4406E-09
130	2.34453E-09
140	2.25854E-09
150	2.18162E-09
160	2.11355E-09
170	2.05036E-09
180	1.99097E-09
190	1.93381E-09
200	1.88265E-09
210	1.83593E-09
220	1.7917E-09
230	1.74893E-09
240	1.70786E-09
250	1.66842E-09
260	1.63269E-09
270	1.60273E-09
280	1.58247E-09
290	1.57325E-09
300	1.56936E-09
310	1.56726E-09
320	1.56586E-09
330	1.56486E-09
340	1.5641E-09
350	1.56339E-09
360	1.56285E-09
370	1.5623E-09
380	1.56189E-09
390	1.5615E-09
400	1.5611E-09
	
#End of manufacturer data file		
