#Measurement file	
#project	CMS tracker
#Sensor Type	PSS
#ID	34342_043_PSS_MAINL
#Scratch PAD	|0000|0000|0000|0000|0100|0011|
#Operator	HPK
#Date	28-Sep-20
#Ingot No.	2984038-504
#Bad strips	0
#AC NG	none
#AC open	none
#AC short	none
#DC high	none
#DC low	none
#DC leaky	none
#Polysilicon Bias Resistance Upper [Mohm]	1.81 
#Polysilicon Bias Resistance Lower [Mohm]	1.60 
#Polysilicon Bias Resistance Average [Mohm]	1.70 
#Depletion voltage [V]	290
#temperature [deg]	25
#humidity [%]	50
	
voltage [V]	current [A]
0	4.149E-09
20	6.419E-08
40	6.696E-08
60	6.686E-08
80	6.814E-08
100	7.222E-08
120	7.326E-08
140	7.396E-08
160	7.469E-08
180	7.503E-08
200	7.564E-08
220	7.667E-08
240	7.818E-08
260	8.024E-08
280	7.712E-08
300	7.824E-08
320	7.901E-08
340	7.965E-08
360	8.022E-08
380	8.073E-08
400	8.123E-08
420	8.169E-08
440	8.214E-08
460	8.257E-08
480	0.000000083
500	8.341E-08
520	8.382E-08
540	8.423E-08
560	8.462E-08
580	8.502E-08
600	8.541E-08
620	8.58E-08
640	8.62E-08
660	8.66E-08
680	8.699E-08
700	8.739E-08
720	8.78E-08
740	8.821E-08
760	8.864E-08
780	8.906E-08
800	8.949E-08
820	8.994E-08
840	9.041E-08
860	9.088E-08
880	9.137E-08
900	9.188E-08
920	9.242E-08
940	9.296E-08
960	9.354E-08
980	9.416E-08
1000	9.479E-08
	
voltage [V]	capacitance [F]
0	5.42509E-08
10	8.17154E-09
20	5.93516E-09
30	4.87148E-09
40	4.21275E-09
50	3.77269E-09
60	3.44779E-09
70	3.16966E-09
80	2.9665E-09
90	2.79793E-09
100	2.65502E-09
110	2.53161E-09
120	2.42402E-09
130	2.32911E-09
140	2.2441E-09
150	2.16799E-09
160	2.10003E-09
170	2.03924E-09
180	1.97936E-09
190	1.92305E-09
200	1.8711E-09
210	1.82386E-09
220	1.7798E-09
230	1.73725E-09
240	1.69631E-09
250	1.65751E-09
260	1.62269E-09
270	1.59399E-09
280	1.57648E-09
290	1.56934E-09
300	1.56623E-09
310	1.56445E-09
320	1.5632E-09
330	1.56228E-09
340	1.56155E-09
350	1.56095E-09
360	1.56037E-09
370	1.55994E-09
380	1.55951E-09
390	1.55914E-09
400	1.55886E-09
	
#End of manufacturer data file		
