#Measurement file	
#project	CMS tracker
#Sensor Type	PSS
#ID	34342_044_PSS_MAINR
#Scratch PAD	|0000|0000|0000|0000|0100|0100|
#Operator	HPK
#Date	28-Sep-20
#Ingot No.	2984038-504
#Bad strips	0
#AC NG	none
#AC open	none
#AC short	none
#DC high	none
#DC low	none
#DC leaky	none
#Polysilicon Bias Resistance Upper [Mohm]	1.81 
#Polysilicon Bias Resistance Lower [Mohm]	1.60 
#Polysilicon Bias Resistance Average [Mohm]	1.70 
#Depletion voltage [V]	280
#temperature [deg]	25
#humidity [%]	50
	
voltage [V]	current [A]
0	1.0093E-09
20	6.33E-08
40	6.718E-08
60	6.919E-08
80	7.075E-08
100	7.248E-08
120	7.384E-08
140	7.455E-08
160	7.527E-08
180	7.556E-08
200	7.616E-08
220	7.705E-08
240	7.851E-08
260	8.048E-08
280	8.207E-08
300	8.046E-08
320	8.121E-08
340	8.178E-08
360	8.235E-08
380	8.288E-08
400	8.339E-08
420	8.388E-08
440	8.434E-08
460	8.481E-08
480	8.525E-08
500	8.57E-08
520	8.613E-08
540	8.656E-08
560	8.698E-08
580	8.74E-08
600	8.782E-08
620	8.824E-08
640	8.867E-08
660	8.909E-08
680	8.95E-08
700	8.994E-08
720	9.036E-08
740	9.079E-08
760	9.123E-08
780	9.167E-08
800	9.212E-08
820	9.257E-08
840	9.303E-08
860	9.35E-08
880	9.397E-08
900	9.445E-08
920	9.495E-08
940	9.545E-08
960	9.597E-08
980	9.649E-08
1000	9.703E-08
	
voltage [V]	capacitance [F]
0	6.18661E-08
10	8.05761E-09
20	5.67428E-09
30	4.73414E-09
40	4.13518E-09
50	3.7143E-09
60	3.40353E-09
70	3.15009E-09
80	2.93796E-09
90	2.77429E-09
100	2.63516E-09
110	2.51483E-09
120	2.40976E-09
130	2.31676E-09
140	2.23346E-09
150	2.15875E-09
160	2.09197E-09
170	2.03079E-09
180	1.97217E-09
190	1.91784E-09
200	1.86734E-09
210	1.81979E-09
220	1.77464E-09
230	1.72848E-09
240	1.68609E-09
250	1.64723E-09
260	1.61367E-09
270	1.58787E-09
280	1.57332E-09
290	1.56724E-09
300	1.56433E-09
310	1.56265E-09
320	1.56145E-09
330	1.56053E-09
340	1.55979E-09
350	1.55916E-09
360	1.55864E-09
370	1.55817E-09
380	1.55776E-09
390	1.55739E-09
400	1.55702E-09
	
#End of manufacturer data file		
