#Measurement file	
#project	CMS tracker
#Sensor Type	PSS
#ID	34342_029_PSS_MAINR
#Scratch PAD	|0000|0000|0000|0000|0010|1001|
#Operator	HPK
#Date	28-Sep-20
#Ingot No.	2984038-504
#Bad strips	0
#AC NG	none
#AC open	none
#AC short	none
#DC high	none
#DC low	none
#DC leaky	none
#Polysilicon Bias Resistance Upper [Mohm]	1.81 
#Polysilicon Bias Resistance Lower [Mohm]	1.60 
#Polysilicon Bias Resistance Average [Mohm]	1.70 
#Depletion voltage [V]	280
#temperature [deg]	25
#humidity [%]	50
	
voltage [V]	current [A]
0	2.419E-09
20	6.454E-08
40	6.796E-08
60	7.007E-08
80	7.14E-08
100	7.34E-08
120	7.455E-08
140	7.535E-08
160	7.612E-08
180	7.653E-08
200	7.708E-08
220	0.000000078
240	7.956E-08
260	0.000000082
280	8.394E-08
300	8.246E-08
320	8.328E-08
340	0.000000084
360	8.464E-08
380	8.523E-08
400	8.58E-08
420	8.633E-08
440	8.685E-08
460	8.734E-08
480	8.783E-08
500	8.83E-08
520	8.877E-08
540	8.922E-08
560	8.967E-08
580	9.012E-08
600	9.056E-08
620	9.1E-08
640	9.143E-08
660	9.187E-08
680	9.231E-08
700	9.274E-08
720	9.318E-08
740	9.363E-08
760	9.407E-08
780	9.453E-08
800	9.498E-08
820	9.545E-08
840	9.592E-08
860	9.64E-08
880	9.689E-08
900	9.74E-08
920	9.791E-08
940	9.844E-08
960	9.898E-08
980	9.953E-08
1000	1.001E-07
	
voltage [V]	capacitance [F]
0	6.1674E-08
10	8.19137E-09
20	5.66182E-09
30	4.73522E-09
40	4.1355E-09
50	3.71867E-09
60	3.40856E-09
70	3.1397E-09
80	2.94273E-09
90	2.77889E-09
100	2.63966E-09
110	2.51932E-09
120	2.41407E-09
130	2.32106E-09
140	2.23764E-09
150	2.16279E-09
160	2.09539E-09
170	2.03516E-09
180	1.97717E-09
190	1.92183E-09
200	1.87108E-09
210	1.82345E-09
220	1.77836E-09
230	1.73442E-09
240	1.68962E-09
250	1.64973E-09
260	1.61568E-09
270	1.59003E-09
280	1.5759E-09
290	1.57E-09
300	1.56722E-09
310	1.56555E-09
320	1.56436E-09
330	1.56347E-09
340	1.56273E-09
350	1.56213E-09
360	1.56158E-09
370	1.5611E-09
380	1.56066E-09
390	1.56025E-09
400	1.55992E-09
	
#End of manufacturer data file		
