Wafer Name:,V7CUMBH

position,ID,result
1,5601, FAIL
2,5602, FAIL
3,5603,pass
4,5604,pass
5,5605,pass
6,5606, FAIL
7,5607,pass
8,5608,pass
9,5609,pass
10,5610,pass
11,5611,pass
12,5612,pass
13,5613,pass
14,5614,pass
15,5615,pass
16,5616,pass
17,5617,pass
18,5618,pass
19,5619,pass
20,5620,pass
21,5621,pass
22,5622,pass
23,5623,pass
24,5624,pass
25,5625,pass
26,5626,pass
27,5627,pass
28,5628,pass
29,5629,pass
30,5630,pass
31,5631, FAIL
32,5632,pass
33,5633, FAIL
34,5634,pass
35,5635,pass
36,5636,pass
37,5637,pass
38,5638,pass
39,5639,pass
40,5640,pass
41,5641, FAIL
42,5642,pass
43,5643,pass
44,5644,pass
45,5645,pass
46,5646,pass
47,5647,pass
48,5648,pass
49,5649,pass
50,5650,pass
51,5651,pass
52,5652,pass
53,5653,pass
54,5654,pass
55,5655,pass
56,5656,pass
57,5657,pass
58,5658,pass
59,5659,pass
60,5660,pass
61,5661,pass
62,5662,pass
63,5663, FAIL
64,5664,pass
65,5665,pass
66,5666,pass
67,5667,pass
68,5668,pass
69,5669,pass
70,5670,pass
71,5671, FAIL
72,5672,pass
73,5673, FAIL
74,5674,pass
75,5675, FAIL
76,5676, FAIL
77,5677,pass
78,5678, FAIL
79,5679,pass
80,5680,pass
81,5681,pass
82,5682,pass
83,5683,pass
84,5684,pass
85,5685, FAIL
86,5686,pass
87,5687,pass
88,5688,pass
89,5689, FAIL
90,5690,pass
91,5691,pass
92,5692,pass
93,5693, FAIL
94,5694,pass
95,5695, FAIL
96,5696,pass
97,5697,pass
98,5698,pass
99,5699,pass
100,5700, FAIL
101,5701, FAIL
102,5702,pass
103,5703,pass
104,5704,pass
105,5705,pass
106,5706,pass
107,5707,pass
108,5708, FAIL
109,5709,pass
110,5710,pass
111,5711,pass
112,5712,pass
113,5713,pass
114,5714,pass
115,5715, FAIL
116,5716, FAIL
117,5717,pass
118,5718,pass
119,5719,pass
120,5720,pass
121,5721,pass
122,5722,pass
123,5723, FAIL
124,5724,pass
125,5725,pass
126,5726,pass
127,5727,pass
128,5728,pass
129,5729,pass
130,5730, FAIL
131,5731,pass
132,5732,pass
133,5733,pass
134,5734,pass
135,5735,pass
136,5736, FAIL
137,5737,pass
138,5738,pass
139,5739,pass
140,5740,pass
141,5741,pass
142,5742,pass
143,5743,pass
144,5744,pass
145,5745,pass
146,5746,pass
147,5747,pass
148,5748,pass
149,5749, FAIL
150,5750,pass
151,5751,pass
152,5752,pass
153,5753,pass
154,5754,pass
155,5755,pass
156,5756,pass
157,5757,pass
158,5758,pass
159,5759,pass
160,5760, FAIL
161,5761,pass
162,5762,pass
163,5763,pass
164,5764,pass
165,5765,pass
166,5766,pass
167,5767,pass
168,5768,pass
169,5769,pass
170,5770,pass
171,5771,pass
172,5772,pass
173,5773,pass
174,5774,pass
175,5775,pass
176,5776,pass
177,5777,pass
178,5778,pass
179,5779,pass
180,5780,pass
181,5781,pass
182,5782,pass
183,5783,pass
184,5784,pass
185,5785,pass
186,5786,pass
