chip id,status
171001,good
171002,bad
171003,good
171004,good
171005,good
171006,bad
171007,bad
171008,good
171009,good
171010,good
171011,good
171012,good
171013,good
171014,good
171015,good
171016,good
171017,good
171018,good
171019,good
171020,good
171021,good
171022,good
171023,good
171024,good
171025,good
171026,good
171027,good
171028,good
171029,bad
171030,good
171031,good
171032,good
171033,good
171034,good
171035,good
171036,bad
171037,good
171038,good
171039,good
171040,good
171041,good
171042,bad
171043,good
171044,good
171045,bad
171046,bad
171047,bad
171048,good
171049,good
171050,good
171051,good
171052,good
171053,good
171054,good
171055,good
171056,good
171057,good
171058,bad
171059,good
171060,good
171061,bad
171062,good
171063,good
171064,bad
171065,good
171066,good
171067,bad
171068,good
171069,good
171070,good
171071,good
171072,bad
171073,good
171074,good
171075,bad
171076,good
171077,good
171078,good
171079,good
171080,bad
171081,good
171082,bad
171083,good
171084,good
171085,good
171086,bad
171087,good
171088,good
171089,good
171090,good
171091,good
171092,good
171093,good
171094,bad
171095,good
171096,good
171097,good
171098,good
171099,good
171100,good
171101,good
171102,good
171103,bad
171104,good
171105,good
171106,good
171107,good
171108,good
171109,good
171110,good
171111,good
171112,good
171113,good
171114,good
171115,good
171116,bad
171117,good
171118,good
171119,good
171120,bad
171121,good
171122,good
171123,good
171124,good
171125,good
171126,good
171127,bad
171128,good
171129,good
171130,good
171131,good
171132,good
171133,good
171134,good
171135,good
171136,bad
171137,good
171138,bad
171139,good
171140,good
171141,bad
171142,good
171143,bad
171144,good
171145,good
171146,bad
171147,good
171148,good
171149,bad
171150,good
171151,good
171152,good
171153,good
171154,good
171155,good
171156,good
171157,good
171158,good
171159,good
171160,good
171161,bad
171162,good
171163,good
171164,good
171165,good
171166,bad
171167,good
171168,good
171169,good
171170,good
171171,good
171172,bad
171173,bad
171174,bad
171175,bad
171176,bad
171177,good
171178,bad
171179,bad
171180,good
171181,good
171182,good
171183,bad
171184,good
171185,good
171186,good
171187,good
171188,bad
171189,good
171190,good
171191,good
171192,good
171193,good
171194,bad
171195,bad
171196,bad
171197,good
171198,good
171199,good
171200,bad
171201,bad
171202,good
171203,good
171204,good
171205,good
171206,good
171207,good
171208,bad
171209,bad
171210,bad
171211,bad
171212,bad
171213,good
171214,good
171215,good
171216,good
171217,good
171218,good
171219,good
171220,good
171221,good
171222,good
171223,good
171224,good
171225,good
171226,good
171227,good
171228,good
171229,good
171230,bad
171231,good
171232,good
171233,good
171234,good
171235,good
171236,good
171237,good
171238,bad
171239,good
171240,bad
171241,bad
171242,good
171243,good
171244,bad
171245,bad
171246,good
171247,good
171248,bad
171249,bad
171250,good
171251,good
171252,good
171253,good
171254,good
171255,bad
171256,good
171257,good
171258,good
171259,good
171260,good
171261,good
171262,good
171263,good
171264,good
171265,good
171266,good
171267,good
171268,good
171269,good
171270,good
171271,good
171272,good
171273,good
171274,good
171275,good
171276,good
171277,good
171278,good
171279,good
171280,bad
171281,good
171282,good
171283,good
171284,good
171285,good
171286,good
171287,bad
171288,good
171289,bad
171290,good
171291,good
171292,bad
171293,good
171294,bad
171295,good
171296,good
171297,good
171298,good
171299,good
171300,good
171301,good
171302,good
171303,bad
171304,bad
171305,good
171306,good
171307,bad
171308,good
171309,bad
171310,good
171311,good
171312,good
171313,good
171314,good
171315,bad
171316,good
171317,good
171318,good
171319,good
171320,good
171321,bad
171322,good
171323,good
171324,good
171325,bad
171326,good
171327,good
171328,good
171329,bad
171330,good
171331,good
171332,good
171333,good
171334,good
171335,bad
171336,good
171337,good
171338,good
171339,good
171340,good
171341,good
171342,bad
171343,good
171344,good
171345,good
171346,good
171347,good
171348,good
171349,good
171350,bad
171351,good
171352,good
171353,good
171354,good
171355,good
171356,good
171357,good
171358,good
171359,good
171360,bad
171361,good
171362,good
171363,good
171364,good
171365,bad
171366,good
171367,good
171368,good
171369,good
171370,good
171371,bad
171372,good
171373,good
171374,bad
171375,good
171376,good
171377,good
171378,good
171379,good
171380,bad
171381,bad
171382,bad
171383,bad
171384,good
171385,good
171386,good
171387,good
171388,good
171389,good
171390,good
171391,good
171392,bad
171393,good
171394,good
171395,bad
171396,good
171397,bad
171398,bad
171399,good
171400,good
171401,good
171402,bad
171403,good
171404,good
171405,good
171406,good
171407,good
171408,good
171409,good
171410,bad
171411,bad
171412,good
171413,good
171414,bad
171415,bad
171416,bad
171417,bad
171418,good
171419,good
171420,good
171421,good
171422,good
171423,good
171424,good
171425,good
171426,good
171427,good
171428,good
171429,good
171430,good
171431,good
171432,good
171433,bad
171434,bad
171435,bad
171436,good
171437,good
171438,good
171439,bad
171440,good
171441,good
171442,bad
171443,good
171444,good
171445,good
171446,good
171447,good
171448,good
171449,good
171450,good
171451,good
171452,good
171453,good
171454,good
171455,good
171456,good
171457,good
171458,good
171459,good
171460,good
171461,good
171462,good
171463,good
171464,good
171465,good
171466,good
171467,good
171468,good
171469,bad
171470,good
171471,good
171472,good
171473,good
171474,bad
171475,bad
171476,good
171477,good
171478,bad
