%CMSwaferCode:CMSchipCode:ChipColumn:ChipRow:Grading:Color:CutVersion:Status:Location:ChipBoardType:BoardNumber:Dose:Sensor:ProbingSite:Iref:IrefTrim:Vref_A:Vref_A_Trim:Vref_D:Vref_D_Trim:Vref_ADC:Vref_ADC_Trim:MON_ADC_Trim:VCAL_HIGH_slope:VCAL_HIGH_offset:VCAL_MED_slope:VCAL_MED_offset:TrefTsensors:Nf1:Nf2:Nf3:Nf4:RD53chipID:Comment:BoardComment:
TSMC_N25A67-03A4:TSMC_N25A67-03A4_8_6:8:6:2:green:4:2:IZM:0:0:0:none:Bonn:4.0052e-06:9:1.212939:24:1.208967:24:0.9011854:11:0:1.092E-08:7.834E-02:2.095E-04:1.699E-02:0:0:0:0:0:1286:Probed at Bonn, Iref = 4.0052e-06 with trim bits 9:No loaded to any board yet
TSMC_N25A67-03A4:TSMC_N25A67-03A4_4_12:4:12:2:green:4:2:IZM:0:0:0:none:Bonn:3.9552e-06:6:1.208253:20:1.196679:23:0.8947233:7:0:2.086E-04:1.487E-02:2.088E-04:1.512E-02:0:0:0:0:0:124C:Probed at Bonn, Iref = 3.9552e-06 with trim bits 6:No loaded to any board yet
TSMC_N25A67-03A4:TSMC_N25A67-03A4_10_5:10:5:1:yellow:4:1:IZM:0:0:0:none:Bonn:4.04347e-06:8:1.197849:22:1.208022:20:0.9034245:14:0:2.102E-04:1.651E-02:2.107E-04:1.643E-02:0:0:0:0:0:12A5:Probed at Bonn, Iref = 4.04347e-06 with trim bits 8:No loaded to any board yet
TSMC_N25A67-03A4:TSMC_N25A67-03A4_3_8:3:8:2:green:4:2:IZM:0:0:0:none:Bonn:3.997312e-06:6:1.192338:23:1.194379:21:0.8957685:11:0:2.084E-04:1.473E-02:2.088E-04:1.498E-02:0:0:0:0:0:1238:Probed at Bonn, Iref = 3.997312e-06 with trim bits 6:No loaded to any board yet
TSMC_N25A67-03A4:TSMC_N25A67-03A4_4_6:4:6:10:red:4:10:IZM:0:0:0:none:Bonn:4.051257e-06:10:1.206161:24:1.204772:20:0.8361303:1:0:1.946E-04:1.415E-02:1.949E-04:1.445E-02:0:0:0:0:0:1246:Probed at Bonn, Iref = 4.051257e-06 with trim bits 10:No loaded to any board yet
TSMC_N25A67-03A4:TSMC_N25A67-03A4_6_11:6:11:10:red:4:10:IZM:0:0:0:none:Bonn:0:0:0:0:0:0:0:0:0:0.000E+00:0.000E+00:0.000E+00:0.000E+00:0:0:0:0:0:126B:Probed at Bonn, Iref = 0 with trim bits 0:No loaded to any board yet
TSMC_N25A67-03A4:TSMC_N25A67-03A4_2_4:2:4:1:yellow:4:1:IZM:0:0:0:none:Bonn:3.97148e-06:3:1.196055:23:1.20493:24:0.9019268:10:0:2.084E-04:2.279E-02:2.089E-04:2.283E-02:0:0:0:0:0:1224:Probed at Bonn, Iref = 3.97148e-06 with trim bits 3:No loaded to any board yet
TSMC_N25A67-03A4:TSMC_N25A67-03A4_5_3:5:3:1:yellow:4:1:IZM:0:0:0:none:Bonn:4.010438e-06:9:1.200165:27:1.19675:26:0.8959733:11:0:2.087E-04:1.412E-02:2.091E-04:1.425E-02:0:0:0:0:0:1253:Probed at Bonn, Iref = 4.010438e-06 with trim bits 9:No loaded to any board yet
TSMC_N25A67-03A4:TSMC_N25A67-03A4_3_11:3:11:2:green:4:2:IZM:0:0:0:none:Bonn:4.013407e-06:5:1.194973:21:1.193676:21:0.8991449:10:0:2.095E-04:1.552E-02:2.100E-04:1.551E-02:0:0:0:0:0:123B:Probed at Bonn, Iref = 4.013407e-06 with trim bits 5:No loaded to any board yet
TSMC_N25A67-03A4:TSMC_N25A67-03A4_4_7:4:7:10:red:4:10:IZM:0:0:0:none:Bonn:3.99998e-06:6:1.135408:15:1.137469:1:0.8243235:17:0:1.917E-04:1.367E-02:1.921E-04:1.380E-02:0:0:0:0:0:1247:Probed at Bonn, Iref = 3.99998e-06 with trim bits 6:No loaded to any board yet
TSMC_N25A67-03A4:TSMC_N25A67-03A4_3_5:3:5:2:green:4:2:IZM:0:0:0:none:Bonn:4.024143e-06:9:1.203447:24:1.197854:22:0.8982999:9:0:2.079E-04:2.202E-02:2.084E-04:2.192E-02:0:0:0:0:0:1235:Probed at Bonn, Iref = 4.024143e-06 with trim bits 9:No loaded to any board yet
TSMC_N25A67-03A4:TSMC_N25A67-03A4_1_6:1:6:1:yellow:4:1:IZM:0:0:0:none:Bonn:3.949642e-06:5:1.200655:17:1.200398:16:0.9021364:10:0:2.081E-04:2.534E-02:2.086E-04:2.527E-02:0:0:0:0:0:1216:Probed at Bonn, Iref = 3.949642e-06 with trim bits 5:No loaded to any board yet
TSMC_N25A67-03A4:TSMC_N25A67-03A4_3_10:3:10:2:green:4:2:IZM:0:0:0:none:Bonn:3.950813e-06:7:1.188187:23:1.208169:16:0.9024382:12:0:2.111E-04:1.337E-02:2.114E-04:1.349E-02:0:0:0:0:0:123A:Probed at Bonn, Iref = 3.950813e-06 with trim bits 7:No loaded to any board yet
TSMC_N25A67-03A4:TSMC_N25A67-03A4_7_10:7:10:2:green:4:2:IZM:0:0:0:none:Bonn:3.971886e-06:9:1.201195:21:1.208915:24:0.902426:10:0:2.115E-04:1.086E-02:2.118E-04:1.105E-02:0:0:0:0:0:127A:Probed at Bonn, Iref = 3.971886e-06 with trim bits 9:No loaded to any board yet
TSMC_N25A67-03A4:TSMC_N25A67-03A4_7_11:7:11:2:green:4:2:IZM:0:0:0:none:Bonn:4.053013e-06:7:1.201923:20:1.194402:21:0.9015542:11:0:2.103E-04:1.299E-02:2.105E-04:1.330E-02:0:0:0:0:0:127B:Probed at Bonn, Iref = 4.053013e-06 with trim bits 7:No loaded to any board yet
TSMC_N25A67-03A4:TSMC_N25A67-03A4_4_3:4:3:10:red:4:10:IZM:0:0:0:none:Bonn:3.938617e-06:5:1.165473:21:1.127285:2:0.8329643:7:0:1.941E-04:1.368E-02:1.944E-04:1.382E-02:0:0:0:0:0:1243:Probed at Bonn, Iref = 3.938617e-06 with trim bits 5:No loaded to any board yet
TSMC_N25A67-03A4:TSMC_N25A67-03A4_6_8:6:8:1:yellow:4:1:IZM:0:0:0:none:Bonn:3.996222e-06:6:1.197883:22:1.195275:21:0.900624:11:0:2.102E-04:1.389E-02:2.104E-04:1.402E-02:0:0:0:0:0:1268:Probed at Bonn, Iref = 3.996222e-06 with trim bits 6:No loaded to any board yet
TSMC_N25A67-03A4:TSMC_N25A67-03A4_2_7:2:7:1:yellow:4:1:IZM:0:0:0:none:Bonn:3.991021e-06:8:1.198182:21:1.197084:21:0.902045:8:0:2.075E-04:2.545E-02:2.078E-04:2.564E-02:0:0:0:0:0:1227:Probed at Bonn, Iref = 3.991021e-06 with trim bits 8:No loaded to any board yet
TSMC_N25A67-03A4:TSMC_N25A67-03A4_2_6:2:6:10:red:4:10:IZM:0:0:0:none:Bonn:0:0:0:0:0:0:0:0:0:0.000E+00:0.000E+00:0.000E+00:0.000E+00:0:0:0:0:0:1226:Probed at Bonn, Iref = 0 with trim bits 0:No loaded to any board yet
TSMC_N25A67-03A4:TSMC_N25A67-03A4_2_10:2:10:2:green:4:2:IZM:0:0:0:none:Bonn:4.051306e-06:6:1.196941:17:1.203744:17:0.9026195:8:0:2.112E-04:1.430E-02:2.117E-04:1.435E-02:0:0:0:0:0:122A:Probed at Bonn, Iref = 4.051306e-06 with trim bits 6:No loaded to any board yet
TSMC_N25A67-03A4:TSMC_N25A67-03A4_6_1:6:1:1:yellow:4:1:IZM:0:0:0:none:Bonn:3.953987e-06:6:1.19146:23:1.20414:22:0.9005008:13:0:2.098E-04:1.592E-02:2.102E-04:1.596E-02:0:0:0:0:0:1261:Probed at Bonn, Iref = 3.953987e-06 with trim bits 6:No loaded to any board yet
TSMC_N25A67-03A4:TSMC_N25A67-03A4_4_10:4:10:1:yellow:4:1:IZM:0:0:0:none:Bonn:3.978863e-06:7:1.195728:25:1.202779:25:0.9016118:11:0:2.101E-04:1.372E-02:2.104E-04:1.388E-02:0:0:0:0:0:124A:Probed at Bonn, Iref = 3.978863e-06 with trim bits 7:No loaded to any board yet
TSMC_N25A67-03A4:TSMC_N25A67-03A4_3_7:3:7:10:red:4:10:IZM:0:0:0:none:Bonn:0:0:0:0:0:0:0:0:0:0.000E+00:0.000E+00:0.000E+00:0.000E+00:0:0:0:0:0:1237:Probed at Bonn, Iref = 0 with trim bits 0:No loaded to any board yet
TSMC_N25A67-03A4:TSMC_N25A67-03A4_10_8:10:8:10:red:4:10:IZM:0:0:0:none:Bonn:4.032797e-06:7:1.190657:23:1.198964:20:0.9014189:9:0:2.091E-04:1.864E-02:2.094E-04:1.889E-02:0:0:0:0:0:12A8:Probed at Bonn, Iref = 4.032797e-06 with trim bits 7:No loaded to any board yet
TSMC_N25A67-03A4:TSMC_N25A67-03A4_7_12:7:12:10:red:4:10:IZM:0:0:0:none:Bonn:4.040833e-06:8:1.200486:22:1.212358:24:0.8954908:7:0:2.080E-04:2.063E-02:2.083E-04:2.084E-02:0:0:0:0:0:127C:Probed at Bonn, Iref = 4.040833e-06 with trim bits 8:No loaded to any board yet
TSMC_N25A67-03A4:TSMC_N25A67-03A4_6_3:6:3:1:yellow:4:1:IZM:0:0:0:none:Bonn:4.019027e-06:7:1.195356:23:1.19487:21:0.8947089:11:0:2.080E-04:1.488E-02:2.084E-04:1.496E-02:0:0:0:0:0:1263:Probed at Bonn, Iref = 4.019027e-06 with trim bits 7:No loaded to any board yet
TSMC_N25A67-03A4:TSMC_N25A67-03A4_9_5:9:5:1:yellow:4:1:IZM:0:0:0:none:Bonn:4.000376e-06:9:1.210881:24:1.196926:25:0.8987123:8:0:2.088E-04:1.574E-02:2.091E-04:1.585E-02:0:0:0:0:0:1295:Probed at Bonn, Iref = 4.000376e-06 with trim bits 9:No loaded to any board yet
TSMC_N25A67-03A4:TSMC_N25A67-03A4_3_6:3:6:2:green:4:2:IZM:0:0:0:none:Bonn:4.036325e-06:7:1.194696:19:1.207533:26:0.9040112:12:0:2.106E-04:1.517E-02:2.109E-04:1.532E-02:0:0:0:0:0:1236:Probed at Bonn, Iref = 4.036325e-06 with trim bits 7:No loaded to any board yet
TSMC_N25A67-03A4:TSMC_N25A67-03A4_1_8:1:8:1:yellow:4:1:IZM:0:0:0:none:Bonn:4.042098e-06:6:1.196069:17:1.193558:23:0.8973697:11:0:2.069E-04:2.294E-02:2.072E-04:2.282E-02:0:0:0:0:0:1218:Probed at Bonn, Iref = 4.042098e-06 with trim bits 6:No loaded to any board yet
TSMC_N25A67-03A4:TSMC_N25A67-03A4_4_2:4:2:10:red:4:10:IZM:0:0:0:none:Bonn:4.017851e-06:6:1.155724:23:1.109345:2:0.8390279:11:0:1.957E-04:1.269E-02:1.960E-04:1.275E-02:0:0:0:0:0:1242:Probed at Bonn, Iref = 4.017851e-06 with trim bits 6:No loaded to any board yet
TSMC_N25A67-03A4:TSMC_N25A67-03A4_6_7:6:7:1:yellow:4:1:IZM:0:0:0:none:Bonn:4.061445e-06:8:1.197213:20:1.201311:27:0.9031156:10:0:2.112E-04:1.094E-02:2.114E-04:1.114E-02:0:0:0:0:0:1267:Probed at Bonn, Iref = 4.061445e-06 with trim bits 8:No loaded to any board yet
TSMC_N25A67-03A4:TSMC_N25A67-03A4_7_5:7:5:2:green:4:2:IZM:0:0:0:none:Bonn:4.050713e-06:8:1.196231:19:1.202873:15:0.9027303:10:0:2.098E-04:1.425E-02:2.102E-04:1.433E-02:0:0:0:0:0:1275:Probed at Bonn, Iref = 4.050713e-06 with trim bits 8:No loaded to any board yet
TSMC_N25A67-03A4:TSMC_N25A67-03A4_8_9:8:9:2:green:4:2:IZM:0:0:0:none:Bonn:4.053171e-06:9:1.207273:16:1.197283:22:0.8986929:11:0:2.094E-04:1.300E-02:2.098E-04:1.305E-02:0:0:0:0:0:1289:Probed at Bonn, Iref = 4.053171e-06 with trim bits 9:No loaded to any board yet
TSMC_N25A67-03A4:TSMC_N25A67-03A4_7_9:7:9:2:green:4:2:IZM:0:0:0:none:Bonn:4.00604e-06:6:1.202643:23:1.201049:24:0.9025295:14:0:2.114E-04:1.037E-02:2.118E-04:1.046E-02:0:0:0:0:0:1279:Probed at Bonn, Iref = 4.00604e-06 with trim bits 6:No loaded to any board yet
TSMC_N25A67-03A4:TSMC_N25A67-03A4_1_7:1:7:10:red:4:10:IZM:0:0:0:none:Bonn:3.991199e-06:7:1.191103:27:1.20343:21:0.9004084:10:0:2.086E-04:1.965E-02:2.091E-04:1.950E-02:0:0:0:0:0:1217:Probed at Bonn, Iref = 3.991199e-06 with trim bits 7:No loaded to any board yet
TSMC_N25A67-03A4:TSMC_N25A67-03A4_5_12:5:12:2:green:4:2:IZM:0:0:0:none:Bonn:3.973313e-06:6:1.207161:24:1.196804:22:0.9005647:8:0:2.097E-04:1.617E-02:2.101E-04:1.634E-02:0:0:0:0:0:125C:Probed at Bonn, Iref = 3.973313e-06 with trim bits 6:No loaded to any board yet
TSMC_N25A67-03A4:TSMC_N25A67-03A4_9_3:9:3:2:green:4:2:IZM:0:0:0:none:Bonn:3.947766e-06:6:1.210954:24:1.207006:24:0.9012597:12:0:2.103E-04:1.368E-02:2.107E-04:1.381E-02:0:0:0:0:0:1293:Probed at Bonn, Iref = 3.947766e-06 with trim bits 6:No loaded to any board yet
TSMC_N25A67-03A4:TSMC_N25A67-03A4_5_10:5:10:1:yellow:4:1:IZM:0:0:0:none:Bonn:4.018783e-06:8:1.205736:22:1.20853:20:0.896538:9:0:2.086E-04:1.293E-02:2.089E-04:1.301E-02:0:0:0:0:0:125A:Probed at Bonn, Iref = 4.018783e-06 with trim bits 8:No loaded to any board yet
TSMC_N25A67-03A4:TSMC_N25A67-03A4_5_9:5:9:2:green:4:2:IZM:0:0:0:none:Bonn:3.94977e-06:8:1.200333:23:1.199665:26:0.9051375:12:0:2.109E-04:1.354E-02:2.113E-04:1.384E-02:0:0:0:0:0:1259:Probed at Bonn, Iref = 3.94977e-06 with trim bits 8:No loaded to any board yet
TSMC_N25A67-03A4:TSMC_N25A67-03A4_5_6:5:6:1:yellow:4:1:IZM:0:0:0:none:Bonn:4.030308e-06:11:1.205288:24:1.205029:22:0.9008549:10:0:2.092E-04:1.438E-02:2.096E-04:1.461E-02:0:0:0:0:0:1256:Probed at Bonn, Iref = 4.030308e-06 with trim bits 11:No loaded to any board yet
TSMC_N25A67-03A4:TSMC_N25A67-03A4_6_4:6:4:1:yellow:4:1:IZM:0:0:0:none:Bonn:3.97362e-06:7:1.198621:19:1.193616:25:0.8988379:11:0:2.100E-04:1.287E-02:2.104E-04:1.292E-02:0:0:0:0:0:1264:Probed at Bonn, Iref = 3.97362e-06 with trim bits 7:No loaded to any board yet
TSMC_N25A67-03A4:TSMC_N25A67-03A4_3_4:3:4:1:yellow:4:1:IZM:0:0:0:none:Bonn:4.038982e-06:9:1.203038:24:1.195184:25:0.9032742:12:0:2.103E-04:1.549E-02:2.107E-04:1.560E-02:0:0:0:0:0:1234:Probed at Bonn, Iref = 4.038982e-06 with trim bits 9:No loaded to any board yet
TSMC_N25A67-03A4:TSMC_N25A67-03A4_5_2:5:2:1:yellow:4:1:IZM:0:0:0:none:Bonn:4.040969e-06:7:1.202142:24:1.19761:22:0.8998218:11:0:2.095E-04:1.346E-02:2.099E-04:1.353E-02:0:0:0:0:0:1252:Probed at Bonn, Iref = 4.040969e-06 with trim bits 7:No loaded to any board yet
TSMC_N25A67-03A4:TSMC_N25A67-03A4_6_10:6:10:2:green:4:2:IZM:0:0:0:none:Bonn:3.952958e-06:7:1.187396:23:1.196783:23:0.8992544:12:0:2.107E-04:1.085E-02:2.111E-04:1.095E-02:0:0:0:0:0:126A:Probed at Bonn, Iref = 3.952958e-06 with trim bits 7:No loaded to any board yet
TSMC_N25A67-03A4:TSMC_N25A67-03A4_5_4:5:4:10:red:4:10:IZM:0:0:0:none:Bonn:4.078179e-06:8:1.137738:13:1.178369:26:0.8271872:11:0:1.926E-04:1.442E-02:1.928E-04:1.457E-02:0:0:0:0:0:1254:Probed at Bonn, Iref = 4.078179e-06 with trim bits 8:No loaded to any board yet
TSMC_N25A67-03A4:TSMC_N25A67-03A4_7_3:7:3:2:green:4:2:IZM:0:0:0:none:Bonn:3.942099e-06:8:1.197731:22:1.202364:18:0.9011283:12:0:2.104E-04:1.300E-02:2.107E-04:1.327E-02:0:0:0:0:0:1273:Probed at Bonn, Iref = 3.942099e-06 with trim bits 8:No loaded to any board yet
TSMC_N25A67-03A4:TSMC_N25A67-03A4_4_9:4:9:2:green:4:2:IZM:0:0:0:none:Bonn:4.022491e-06:7:1.197224:21:1.201919:25:0.8987585:11:0:2.099E-04:1.324E-02:2.102E-04:1.352E-02:0:0:0:0:0:1249:Probed at Bonn, Iref = 4.022491e-06 with trim bits 7:No loaded to any board yet
TSMC_N25A67-03A4:TSMC_N25A67-03A4_9_6:9:6:1:yellow:4:1:IZM:0:0:0:none:Bonn:3.945688e-06:6:1.19717:19:1.188223:23:0.9046205:12:0:5.967E-09:8.071E-02:-5.000E-09:1.240E-01:0:0:0:0:0:1296:Probed at Bonn, Iref = 3.945688e-06 with trim bits 6:No loaded to any board yet
TSMC_N25A67-03A4:TSMC_N25A67-03A4_6_9:6:9:1:yellow:4:1:IZM:0:0:0:none:Bonn:3.978768e-06:10:1.209775:24:1.197617:21:0.8970165:9:0:2.093E-04:1.299E-02:2.096E-04:1.313E-02:0:0:0:0:0:1269:Probed at Bonn, Iref = 3.978768e-06 with trim bits 10:No loaded to any board yet
TSMC_N25A67-03A4:TSMC_N25A67-03A4_3_9:3:9:1:yellow:4:1:IZM:0:0:0:none:Bonn:4.037306e-06:8:1.199302:26:1.201675:18:0.898985:13:0:2.095E-04:1.552E-02:2.099E-04:1.567E-02:0:0:0:0:0:1239:Probed at Bonn, Iref = 4.037306e-06 with trim bits 8:No loaded to any board yet
TSMC_N25A67-03A4:TSMC_N25A67-03A4_2_5:2:5:1:yellow:4:1:IZM:0:0:0:none:Bonn:3.931154e-06:7:1.202646:23:1.188574:23:0.8969404:9:0:2.070E-04:2.302E-02:2.074E-04:2.311E-02:0:0:0:0:0:1225:Probed at Bonn, Iref = 3.931154e-06 with trim bits 7:No loaded to any board yet
TSMC_N25A67-03A4:TSMC_N25A67-03A4_5_5:5:5:2:green:4:2:IZM:0:0:0:none:Bonn:4.029002e-06:8:1.200183:24:1.201379:21:0.8994256:12:0:2.091E-04:1.520E-02:2.093E-04:1.530E-02:0:0:0:0:0:1255:Probed at Bonn, Iref = 4.029002e-06 with trim bits 8:No loaded to any board yet
TSMC_N25A67-03A4:TSMC_N25A67-03A4_3_3:3:3:10:red:4:10:IZM:0:0:0:none:Bonn:0:0:0:0:0:0:0:0:0:0.000E+00:0.000E+00:0.000E+00:0.000E+00:0:0:0:0:0:1233:Probed at Bonn, Iref = 0 with trim bits 0:No loaded to any board yet
TSMC_N25A67-03A4:TSMC_N25A67-03A4_9_8:9:8:2:green:4:2:IZM:0:0:0:none:Bonn:3.968464e-06:6:1.193195:19:1.19865:22:0.9031338:12:0:2.104E-04:1.559E-02:2.107E-04:1.578E-02:0:0:0:0:0:1298:Probed at Bonn, Iref = 3.968464e-06 with trim bits 6:No loaded to any board yet
TSMC_N25A67-03A4:TSMC_N25A67-03A4_10_6:10:6:10:red:4:10:IZM:0:0:0:none:Bonn:4.010985e-06:8:1.197899:22:1.197376:24:0.9018674:13:0:2.093E-04:1.697E-02:2.097E-04:1.715E-02:0:0:0:0:0:12A6:Probed at Bonn, Iref = 4.010985e-06 with trim bits 8:No loaded to any board yet
TSMC_N25A67-03A4:TSMC_N25A67-03A4_6_5:6:5:2:green:4:2:IZM:0:0:0:none:Bonn:3.994125e-06:8:1.208538:20:1.20225:22:0.9031421:10:0:1.320E-08:7.696E-02:2.106E-04:1.524E-02:0:0:0:0:0:1265:Probed at Bonn, Iref = 3.994125e-06 with trim bits 8:No loaded to any board yet
TSMC_N25A67-03A4:TSMC_N25A67-03A4_8_7:8:7:2:green:4:2:IZM:0:0:0:none:Bonn:3.962655e-06:8:1.200097:21:1.201982:27:0.8971344:11:0:2.087E-04:1.572E-02:2.089E-04:1.597E-02:0:0:0:0:0:1287:Probed at Bonn, Iref = 3.962655e-06 with trim bits 8:No loaded to any board yet
TSMC_N25A67-03A4:TSMC_N25A67-03A4_4_4:4:4:2:green:4:2:IZM:0:0:0:none:Bonn:3.956503e-06:7:1.208096:24:1.197759:19:0.8997329:10:0:2.096E-04:1.440E-02:2.100E-04:1.440E-02:0:0:0:0:0:1244:Probed at Bonn, Iref = 3.956503e-06 with trim bits 7:No loaded to any board yet
TSMC_N25A67-03A4:TSMC_N25A67-03A4_4_11:4:11:10:red:4:10:IZM:0:0:0:none:Bonn:3.697283e-06:15:1.195324:25:1.203308:16:0.9004561:10:0:2.097E-04:1.503E-02:2.100E-04:1.517E-02:0:0:0:0:0:124B:Probed at Bonn, Iref = 3.697283e-06 with trim bits 15:No loaded to any board yet
TSMC_N25A67-03A4:TSMC_N25A67-03A4_7_7:7:7:2:green:4:2:IZM:0:0:0:none:Bonn:4.012624e-06:9:1.193435:25:1.202976:19:0.8967369:11:0:2.092E-04:1.197E-02:2.096E-04:1.213E-02:0:0:0:0:0:1277:Probed at Bonn, Iref = 4.012624e-06 with trim bits 9:No loaded to any board yet
TSMC_N25A67-03A4:TSMC_N25A67-03A4_4_8:4:8:10:red:4:10:IZM:0:0:0:none:Bonn:0:0:0:0:0:0:0:0:0:0.000E+00:0.000E+00:0.000E+00:0.000E+00:0:0:0:0:0:1248:Probed at Bonn, Iref = 0 with trim bits 0:No loaded to any board yet
TSMC_N25A67-03A4:TSMC_N25A67-03A4_9_9:9:9:1:yellow:4:1:IZM:0:0:0:none:Bonn:3.980602e-06:7:1.201508:21:1.196482:19:0.8958026:11:0:2.085E-04:1.596E-02:2.087E-04:1.620E-02:0:0:0:0:0:1299:Probed at Bonn, Iref = 3.980602e-06 with trim bits 7:No loaded to any board yet
TSMC_N25A67-03A4:TSMC_N25A67-03A4_10_7:10:7:10:red:4:10:IZM:0:0:0:none:Bonn:4.013461e-06:8:1.193412:31:1.205527:26:0.9023583:12:0:2.086E-04:1.934E-02:2.090E-04:1.942E-02:0:0:0:0:0:12A7:Probed at Bonn, Iref = 4.013461e-06 with trim bits 8:No loaded to any board yet
TSMC_N25A67-03A4:TSMC_N25A67-03A4_9_4:9:4:2:green:4:2:IZM:0:0:0:none:Bonn:4.053764e-06:9:1.200756:19:1.198206:20:0.9004867:10:0:2.102E-04:1.564E-02:2.105E-04:1.567E-02:0:0:0:0:0:1294:Probed at Bonn, Iref = 4.053764e-06 with trim bits 9:No loaded to any board yet
TSMC_N25A67-03A4:TSMC_N25A67-03A4_8_2:8:2:1:yellow:4:1:IZM:0:0:0:none:Bonn:3.949709e-06:9:1.192724:27:1.196212:13:0.9042901:12:0:2.099E-04:1.689E-02:2.103E-04:1.711E-02:0:0:0:0:0:1282:Probed at Bonn, Iref = 3.949709e-06 with trim bits 9:No loaded to any board yet
TSMC_N25A67-03A4:TSMC_N25A67-03A4_2_8:2:8:2:green:4:2:IZM:0:0:0:none:Bonn:4.003115e-06:8:1.195413:23:1.208813:24:0.8986493:15:0:2.091E-04:1.663E-02:2.095E-04:1.681E-02:0:0:0:0:0:1228:Probed at Bonn, Iref = 4.003115e-06 with trim bits 8:No loaded to any board yet
TSMC_N25A67-03A4:TSMC_N25A67-03A4_7_6:7:6:2:green:4:2:IZM:0:0:0:none:Bonn:4.048725e-06:10:1.200512:25:1.19057:23:0.8960461:11:0:2.086E-04:1.483E-02:2.090E-04:1.491E-02:0:0:0:0:0:1276:Probed at Bonn, Iref = 4.048725e-06 with trim bits 10:No loaded to any board yet
TSMC_N25A67-03A4:TSMC_N25A67-03A4_9_7:9:7:1:yellow:4:1:IZM:0:0:0:none:Bonn:3.951006e-06:8:1.197895:22:1.196927:20:0.8998536:9:0:2.091E-04:1.831E-02:2.093E-04:1.840E-02:0:0:0:0:0:1297:Probed at Bonn, Iref = 3.951006e-06 with trim bits 8:No loaded to any board yet
TSMC_N25A67-03A4:TSMC_N25A67-03A4_7_4:7:4:1:yellow:4:1:IZM:0:0:0:none:Bonn:4.01975e-06:7:1.197383:21:1.194418:21:0.9000555:11:0:2.100E-04:1.502E-02:2.104E-04:1.504E-02:0:0:0:0:0:1274:Probed at Bonn, Iref = 4.01975e-06 with trim bits 7:No loaded to any board yet
TSMC_N25A67-03A4:TSMC_N25A67-03A4_5_8:5:8:2:green:4:2:IZM:0:0:0:none:Bonn:3.982202e-06:7:1.202552:24:1.203874:21:0.9003947:10:0:2.101E-04:1.201E-02:2.104E-04:1.225E-02:0:0:0:0:0:1258:Probed at Bonn, Iref = 3.982202e-06 with trim bits 7:No loaded to any board yet
TSMC_N25A67-03A4:TSMC_N25A67-03A4_8_5:8:5:10:red:4:10:IZM:0:0:0:none:Bonn:4.021631e-06:8:1.202676:20:1.19649:24:0.8219965:8:0:4.693E-09:7.122E-02:1.915E-04:1.494E-02:0:0:0:0:0:1285:Probed at Bonn, Iref = 4.021631e-06 with trim bits 8:No loaded to any board yet
TSMC_N25A67-03A4:TSMC_N25A67-03A4_8_4:8:4:2:green:4:2:IZM:0:0:0:none:Bonn:3.970081e-06:8:1.200234:25:1.202843:15:0.9015268:8:0:2.097E-04:1.593E-02:2.100E-04:1.610E-02:0:0:0:0:0:1284:Probed at Bonn, Iref = 3.970081e-06 with trim bits 8:No loaded to any board yet
TSMC_N25A67-03A4:TSMC_N25A67-03A4_2_9:2:9:2:green:4:2:IZM:0:0:0:none:Bonn:4.033604e-06:8:1.206398:24:1.201272:17:0.8989406:12:0:2.087E-04:1.910E-02:2.091E-04:1.910E-02:0:0:0:0:0:1229:Probed at Bonn, Iref = 4.033604e-06 with trim bits 8:No loaded to any board yet
TSMC_N25A67-03A4:TSMC_N25A67-03A4_7_2:7:2:1:yellow:4:1:IZM:0:0:0:none:Bonn:3.975009e-06:8:1.203665:22:1.203226:25:0.9016312:15:0:2.110E-04:1.001E-02:2.113E-04:1.018E-02:0:0:0:0:0:1272:Probed at Bonn, Iref = 3.975009e-06 with trim bits 8:No loaded to any board yet
TSMC_N25A67-03A4:TSMC_N25A67-03A4_5_1:5:1:1:yellow:4:1:IZM:0:0:0:none:Bonn:3.98877e-06:5:1.200688:21:1.200043:17:0.9025156:12:0:2.104E-04:1.674E-02:2.109E-04:1.682E-02:0:0:0:0:0:1251:Probed at Bonn, Iref = 3.98877e-06 with trim bits 5:No loaded to any board yet
TSMC_N25A67-03A4:TSMC_N25A67-03A4_8_3:8:3:2:green:4:2:IZM:0:0:0:none:Bonn:3.974903e-06:8:1.201543:23:1.211394:24:0.9012198:11:0:2.099E-04:1.569E-02:2.103E-04:1.591E-02:0:0:0:0:0:1283:Probed at Bonn, Iref = 3.974903e-06 with trim bits 8:No loaded to any board yet
TSMC_N25A67-03A4:TSMC_N25A67-03A4_5_7:5:7:1:yellow:4:1:IZM:0:0:0:none:Bonn:4.00853e-06:6:1.196827:23:1.203175:16:0.8991128:13:0:2.091E-04:1.454E-02:2.093E-04:1.479E-02:0:0:0:0:0:1257:Probed at Bonn, Iref = 4.00853e-06 with trim bits 6:No loaded to any board yet
TSMC_N25A67-03A4:TSMC_N25A67-03A4_8_8:8:8:2:green:4:2:IZM:0:0:0:none:Bonn:4.061917e-06:6:1.197496:16:1.19962:22:0.9014312:11:0:2.099E-04:1.351E-02:2.104E-04:1.358E-02:0:0:0:0:0:1288:Probed at Bonn, Iref = 4.061917e-06 with trim bits 6:No loaded to any board yet
TSMC_N25A67-03A4:TSMC_N25A67-03A4_6_2:6:2:2:green:4:2:IZM:0:0:0:none:Bonn:4.046495e-06:6:1.207518:24:1.197556:25:0.8970094:5:0:2.092E-04:1.414E-02:2.095E-04:1.432E-02:0:0:0:0:0:1262:Probed at Bonn, Iref = 4.046495e-06 with trim bits 6:No loaded to any board yet
TSMC_N25A67-03A4:TSMC_N25A67-03A4_10_9:10:9:10:red:4:10:IZM:0:0:0:none:Bonn:0:0:0:0:0:0:0:0:0:0.000E+00:0.000E+00:0.000E+00:0.000E+00:0:0:0:0:0:12A9:Probed at Bonn, Iref = 0 with trim bits 0:No loaded to any board yet
TSMC_N25A67-03A4:TSMC_N25A67-03A4_9_10:9:10:1:yellow:4:1:IZM:0:0:0:none:Bonn:3.99762e-06:4:1.202379:21:1.200815:23:0.898727:11:0:2.095E-04:1.572E-02:2.098E-04:1.589E-02:0:0:0:0:0:129A:Probed at Bonn, Iref = 3.99762e-06 with trim bits 4:No loaded to any board yet
TSMC_N25A67-03A4:TSMC_N25A67-03A4_8_10:8:10:2:green:4:2:IZM:0:0:0:none:Bonn:3.956558e-06:6:1.191677:15:1.201242:25:0.903249:10:0:2.103E-04:1.591E-02:2.106E-04:1.597E-02:0:0:0:0:0:128A:Probed at Bonn, Iref = 3.956558e-06 with trim bits 6:No loaded to any board yet
TSMC_N25A67-03A4:TSMC_N25A67-03A4_5_11:5:11:1:yellow:4:1:IZM:0:0:0:none:Bonn:3.97624e-06:7:1.198755:22:1.197407:23:0.9014125:12:0:2.100E-04:1.446E-02:2.103E-04:1.466E-02:0:0:0:0:0:125B:Probed at Bonn, Iref = 3.97624e-06 with trim bits 7:No loaded to any board yet
TSMC_N25A67-03A4:TSMC_N25A67-03A4_8_11:8:11:2:green:4:2:IZM:0:0:0:none:Bonn:3.990134e-06:8:1.207817:26:1.202098:18:0.9004325:11:0:2.093E-04:1.672E-02:2.096E-04:1.676E-02:0:0:0:0:0:128B:Probed at Bonn, Iref = 3.990134e-06 with trim bits 8:No loaded to any board yet
TSMC_N25A67-03A4:TSMC_N25A67-03A4_4_5:4:5:10:red:4:10:IZM:0:0:0:none:Bonn:3.972631e-06:7:1.201583:23:1.201495:20:0.8983852:9:0:2.097E-04:1.394E-02:2.102E-04:1.404E-02:0:0:0:0:0:1245:Probed at Bonn, Iref = 3.972631e-06 with trim bits 7:No loaded to any board yet
TSMC_N25A67-03A4:TSMC_N25A67-03A4_2_3:2:3:10:red:4:10:IZM:0:0:0:none:Bonn:0:0:0:0:0:0:0:0:0:0.000E+00:0.000E+00:0.000E+00:0.000E+00:0:0:0:0:0:1223:Probed at Bonn, Iref = 0 with trim bits 0:No loaded to any board yet
TSMC_N25A67-03A4:TSMC_N25A67-03A4_6_12:6:12:10:red:4:10:IZM:0:0:0:none:Bonn:0:0:0:0:0:0:0:0:0:0.000E+00:0.000E+00:0.000E+00:0.000E+00:0:0:0:0:0:126C:Probed at Bonn, Iref = 0 with trim bits 0:No loaded to any board yet
TSMC_N25A67-03A4:TSMC_N25A67-03A4_6_6:6:6:1:yellow:4:1:IZM:0:0:0:none:Bonn:3.990894e-06:7:1.190772:23:1.201087:21:0.8971885:11:0:2.097E-04:1.294E-02:2.099E-04:1.308E-02:0:0:0:0:0:1266:Probed at Bonn, Iref = 3.990894e-06 with trim bits 7:No loaded to any board yet
TSMC_N25A67-03A4:TSMC_N25A67-03A4_7_8:7:8:1:yellow:4:1:IZM:0:0:0:none:Bonn:4.008859e-06:9:1.198939:17:1.200783:25:0.8979595:12:0:2.092E-04:1.428E-02:2.095E-04:1.439E-02:0:0:0:0:0:1278:Probed at Bonn, Iref = 4.008859e-06 with trim bits 9:No loaded to any board yet
